<?xml version="1.0" encoding="iso-8859-1"?>
<!-- Generator: Adobe Illustrator 17.1.0, SVG Export Plug-In . SVG Version: 6.00 Build 0)  -->
<!DOCTYPE svg PUBLIC "-//W3C//DTD SVG 1.1//EN" "http://www.w3.org/Graphics/SVG/1.1/DTD/svg11.dtd">
<svg version="1.1" xmlns="http://www.w3.org/2000/svg" xmlns:xlink="http://www.w3.org/1999/xlink" x="0px" y="0px"
	 viewBox="0 0 64 64" enable-background="new 0 0 64 64" xml:space="preserve">
<g id="Layer_1">
	<g>
		<path fill="#EE4036" d="M42.703,15.982l-3.242,1.036c-2.295-3.211-6.026-5.181-10.006-5.181c-6.787,0-12.308,5.521-12.308,12.308
			h1.676c0-5.862,4.77-10.632,10.632-10.632c3.258,0,6.334,1.52,8.335,4.039l-3.046,0.973l6.181,5.62L42.703,15.982z"/>
		<g>
			<path fill="#EE4036" d="M41.763,29.432h-1.676c0,5.862-4.77,10.632-10.632,10.632c-3.258,0-6.333-1.52-8.334-4.039l3.045-0.973
				l-6.181-5.621l-1.778,8.163l3.243-1.036c2.296,3.211,6.026,5.181,10.005,5.181C36.242,41.74,41.763,36.219,41.763,29.432z"/>
			<path fill="#25A9E0" d="M37.346,31.268v-6.98l-3.171-2.883c-0.115,0.411-0.18,0.842-0.18,1.289v13.465
				C35.663,35.03,36.875,33.289,37.346,31.268z"/>
			<path fill="#25A9E0" d="M53.416,17.667h-8.508l-0.73,3.351h9.238c0.924,0,1.676,0.751,1.676,1.676v24.441
				c0,0.925-0.752,1.676-1.676,1.676H39.021c-0.924,0-1.676-0.751-1.676-1.676v-5.178c-1.039,0.657-2.16,1.193-3.351,1.577v3.601
				c0,2.772,2.255,5.027,5.027,5.027h14.394c2.772,0,5.027-2.255,5.027-5.027V22.694C58.443,19.922,56.188,17.667,53.416,17.667z"/>
			<path fill="#FFFFFF" d="M22.562,42.514v4.622c0,0.925-0.752,1.676-1.676,1.676H6.492c-0.924,0-1.676-0.751-1.676-1.676V22.694
				c0-0.925,0.752-1.676,1.676-1.676h8.48c0.254-1.177,0.657-2.296,1.173-3.351H6.492c-2.772,0-5.027,2.255-5.027,5.027v24.441
				c0,2.772,2.255,5.027,5.027,5.027h14.394c2.772,0,5.027-2.255,5.027-5.027v-3.337C24.746,43.507,23.622,43.076,22.562,42.514z"/>
			<path fill="#FFFFFF" d="M22.562,22.694v7.502l3.295,2.996c0.022,0.02,0.035,0.046,0.056,0.067V22.694
				c0-1.757-0.918-3.281-2.29-4.174c-0.777,0.806-1.373,1.775-1.766,2.846C22.273,21.671,22.562,22.14,22.562,22.694z"/>
		</g>
	</g>
</g>
<g id="Layer_3" display="none">
	<g display="inline">
		<path fill="#25A9E0" d="M29.264,17.668h-2.799c0.846,0.938,1.468,2.078,1.759,3.351h1.04c0.924,0,1.676,0.752,1.676,1.676v24.44
			c0,0.924-0.752,1.676-1.676,1.676h-1.04c-0.291,1.274-0.912,2.413-1.759,3.351h2.799c2.772,0,5.027-2.255,5.027-5.027v-24.44
			C34.291,19.923,32.036,17.668,29.264,17.668z"/>
		<path fill="#25A9E0" d="M37.642,17.668h-2.799c0.846,0.938,1.468,2.078,1.759,3.351h1.04c0.924,0,1.676,0.752,1.676,1.676v24.44
			c0,0.924-0.752,1.676-1.676,1.676h-1.04c-0.291,1.274-0.912,2.413-1.759,3.351h2.799c2.772,0,5.027-2.255,5.027-5.027v-24.44
			C42.669,19.923,40.414,17.668,37.642,17.668z"/>
		<path fill="#25A9E0" d="M46.02,17.668h-2.799c0.846,0.938,1.468,2.078,1.759,3.351h1.04c0.924,0,1.676,0.752,1.676,1.676v24.44
			c0,0.924-0.752,1.676-1.676,1.676h-1.04c-0.291,1.274-0.912,2.413-1.759,3.351h2.799c2.772,0,5.027-2.255,5.027-5.027v-24.44
			C51.047,19.923,48.792,17.668,46.02,17.668z"/>
		<path fill="#FFFFFF" d="M25.912,22.695c0-2.772-2.255-5.027-5.027-5.027H6.492c-2.772,0-5.027,2.255-5.027,5.027v24.44
			c0,2.772,2.255,5.027,5.027,5.027h14.394c2.772,0,5.027-2.255,5.027-5.027V22.695z M22.561,47.136
			c0,0.924-0.752,1.676-1.676,1.676H6.492c-0.924,0-1.676-0.752-1.676-1.676l0-24.44c0-0.924,0.752-1.676,1.676-1.676h14.394
			c0.924,0,1.676,0.752,1.676,1.676V47.136z"/>
		<path fill="#25A9E0" d="M54.398,17.668h-2.799c0.846,0.938,1.468,2.078,1.759,3.351h1.04c0.924,0,1.676,0.752,1.676,1.676v24.44
			c0,0.924-0.752,1.676-1.676,1.676h-1.04c-0.291,1.274-0.912,2.413-1.759,3.351h2.799c2.772,0,5.027-2.255,5.027-5.027v-24.44
			C59.425,19.923,57.17,17.668,54.398,17.668z"/>
	</g>
</g>
<g id="Layer_2" display="none">
	<g display="inline">
		<path fill="#009345" d="M61.024,35.254l-27.351-15.79c-0.446-0.257-0.948-0.378-1.451-0.378c-1.066,0-2.135,0.544-2.679,1.486
			l-2.915,5.049c-0.412,0.713-0.493,1.537-0.222,2.257c0.272,0.721,0.875,1.286,1.657,1.551l6.453,2.188
			c0.332,0.112,0.686,0.169,1.051,0.169h0.001c1.278,0,2.498-0.681,3.107-1.736c0.241-0.419,0.719-0.661,1.195-0.661
			c0.224,0,0.448,0.054,0.647,0.169l8.346,4.819c0.644,0.371,0.866,1.198,0.494,1.842c-0.806,1.396-0.488,3.321,0.723,4.385
			l5.12,4.494c0.509,0.446,1.137,0.692,1.769,0.692c0.916,0,1.757-0.506,2.247-1.354l2.915-5.049
			C62.965,37.942,62.468,36.087,61.024,35.254z M60.679,38.548l-2.915,5.049c-0.326,0.565-0.967,0.67-1.459,0.24l-5.12-4.494
			c-0.601-0.526-0.776-1.595-0.377-2.288c0.833-1.443,0.335-3.297-1.108-4.13l-8.346-4.819c-0.457-0.264-0.978-0.403-1.506-0.403
			c-1.082,0-2.087,0.579-2.625,1.51c-0.389,0.673-1.429,1.069-2.169,0.817l-6.453-2.188c-0.309-0.105-0.532-0.301-0.627-0.554
			c-0.095-0.253-0.057-0.547,0.106-0.829l2.915-5.049c0.356-0.615,1.222-0.853,1.842-0.494l27.35,15.79
			C60.83,37.077,61.052,37.904,60.679,38.548z"/>
		<path fill="#EE4036" d="M39.04,36.591H19.553c-1.386,0-2.513,1.127-2.513,2.513v10.544c0,1.386,1.127,2.513,2.513,2.513H39.04
			c1.386,0,2.513-1.127,2.513-2.513V39.105C41.554,37.719,40.426,36.591,39.04,36.591z M37.727,38.267l-8.43,5.129l-8.43-5.129
			H37.727z M39.878,49.649c0,0.462-0.376,0.838-0.838,0.838H19.553c-0.462,0-0.838-0.376-0.838-0.838V39.105
			c0-0.059,0.022-0.11,0.033-0.165l10.113,6.154c0.133,0.081,0.285,0.122,0.435,0.122c0.151,0,0.302-0.041,0.435-0.122l10.112-6.153
			c0.011,0.055,0.033,0.106,0.033,0.165V49.649z"/>
		<path fill="#FFFFFF" d="M24.053,28.762c-0.537-1.428-0.392-3.031,0.398-4.398l1.387-2.402c-0.359-2.423-2.432-4.293-4.953-4.293
			H6.492c-2.772,0-5.027,2.255-5.027,5.027v24.44c0,2.772,2.255,5.027,5.027,5.027h8.756c-0.442-0.741-0.721-1.588-0.721-2.513
			v-0.838H6.492c-0.924,0-1.676-0.752-1.676-1.676v-24.44c0-0.924,0.752-1.676,1.676-1.676h14.394c0.924,0,1.676,0.752,1.676,1.676
			v11.383h3.351v-2.981C25.075,30.513,24.414,29.719,24.053,28.762z"/>
	</g>
</g>
</svg>
